^C:\USERS\ДМИТРИЙ\SOURCE\REPOS\C++ HOMEWORK 7\C++ HOMEWORK 7\X64\DEBUG\C++ HOMEWORK 7.OBJ
C:\USERS\Дмитрий\SOURCE\REPOS\C++ HOMEWORK 7\X64\DEBUG\C++ HOMEWORK 7.EXE
C:\USERS\Дмитрий\SOURCE\REPOS\C++ HOMEWORK 7\X64\DEBUG\C++ HOMEWORK 7.PDB
